{
  "images" : [
    {
      "idiom" : "universal",
      "filename" : "我有梦想，规划自己的职业人生@1.png",
      "scale" : "1x"
    },
    {
      "idiom" : "universal",
      "filename" : "我有梦想，规划自己的职业人生@2.png",
      "scale" : "2x"
    },
    {
      "idiom" : "universal",
      "filename" : "我有梦想，规划自己的职业人生@3.png",
      "scale" : "3x"
    }
  ],
  "info" : {
    "version" : 1,
    "author" : "xcode"
  }
}